# WaveFront *.mtl file (generated by CINEMA 4D)

newmtl paredesban
Ka 1 1 1
Kd 0.80000001192093 0.80000001192093 0.80000001192093
map_Kd patronbano.jpg
Ks 1 1 1
Ns 50
illum 7

newmtl techo
Ka 1 1 1
Kd 0.80000001192093 0.80000001192093 0.80000001192093
map_Kd pared.jpg
Ks 1 1 1
Ns 50
illum 7

newmtl Oxido
Ka 1 1 1
Kd 0.80000001192093 0.80000001192093 0.80000001192093
map_Kd Oxido.jpg
Ks 1 1 1
Ns 50
illum 7

newmtl amariban
Ka 1 1 1
Kd 0.80000001192093 0.80000001192093 0.80000001192093
map_Kd blanco.jpg
Ks 1 1 1
Ns 50
illum 7

newmtl Maderban
Ka 1 1 1
Kd 0.80000001192093 0.80000001192093 0.80000001192093
map_Kd maderabanio.jpg
Ks 1 1 1
Ns 50
illum 7

newmtl Banera
Ka 1 1 1
Kd 0.80000001192093 0.80000001192093 0.80000001192093
map_Kd banera.jpg
Ks 1 1 1
Ns 50
illum 7

newmtl Telefono
Ka 1 1 1
Kd 0.80000001192093 0.80000001192093 0.80000001192093
map_Kd telefono2.jpg
Ks 1 1 1
Ns 50
illum 7

newmtl vela
Ka 1 1 1
Kd 0.80000001192093 0.80000001192093 0.80000001192093
map_Kd vela.png
Ks 1 1 1
Ns 50
illum 7

newmtl botella
Ka 1 1 1
Kd 0.80000001192093 0.80000001192093 0.80000001192093
map_Kd Botella.png
Ks 1 1 1
Ns 50
illum 7

newmtl Libro
Ka 1 1 1
Kd 0.80000001192093 0.80000001192093 0.80000001192093
map_Kd Libro.png
Ks 1 1 1
Ns 50
illum 7

newmtl PisoC
Ka 1 1 1
Kd 0.80000001192093 0.80000001192093 0.80000001192093
map_Kd piso.jpg
Ks 1 1 1
Ns 50
illum 7

newmtl Closet
Ka 1 1 1
Kd 0.80000001192093 0.80000001192093 0.80000001192093
map_Kd pared2.jpg
Ks 1 1 1
Ns 50
illum 7

newmtl PuertaCloset
Ka 1 1 1
Kd 0.80000001192093 0.80000001192093 0.80000001192093
map_Kd puertaCloset.jpg
Ks 1 1 1
Ns 50
illum 7

newmtl Lamparamesa
Ka 1 1 1
Kd 0.80000001192093 0.80000001192093 0.80000001192093
map_Kd lampara_mesa.jpg
Ks 1 1 1
Ns 50
illum 7

newmtl velador
Ka 1 1 1
Kd 0.80000001192093 0.80000001192093 0.80000001192093
map_Kd velador_1.jpg
Ks 1 1 1
Ns 50
illum 7

newmtl Escritorio
Ka 1 1 1
Kd 0.80000001192093 0.80000001192093 0.80000001192093
map_Kd escritorio.jpg
Ks 1 1 1
Ns 50
illum 7

newmtl cajonera
Ka 1 1 1
Kd 0.80000001192093 0.80000001192093 0.80000001192093
map_Kd cajonera_1.jpg
Ks 1 1 1
Ns 50
illum 7

newmtl Banco
Ka 1 1 1
Kd 0.80000001192093 0.80000001192093 0.80000001192093
map_Kd banco.jpg
Ks 1 1 1
Ns 50
illum 7

newmtl almohada
Ka 1 1 1
Kd 0.80000001192093 0.80000001192093 0.80000001192093
map_Kd almohada.jpg
Ks 1 1 1
Ns 50
illum 7

newmtl Sabana
Ka 1 1 1
Kd 0.80000001192093 0.80000001192093 0.80000001192093
map_Kd Textura_cama2.jpg
Ks 1 1 1
Ns 50
illum 7

newmtl Colcha
Ka 1 1 1
Kd 0.80000001192093 0.80000001192093 0.80000001192093
map_Kd Textura_cama.jpg
Ks 1 1 1
Ns 50
illum 7

newmtl CocinaCubosSup
Ka 1 1 1
Kd 0.80000001192093 0.80000001192093 0.80000001192093
map_Kd armario_pequeno.jpg
Ks 1 1 1
Ns 50
illum 7

newmtl CocinaMeson
Ka 1 1 1
Kd 0.80000001192093 0.80000001192093 0.80000001192093
map_Kd marmolcocina.jpg
Ks 1 1 1
Ns 50
illum 7

newmtl ParedCocina
Ka 1 1 1
Kd 0.80000001192093 0.80000001192093 0.80000001192093
map_Kd mueblescocina.jpg
Ks 1 1 1
Ns 50
illum 7

newmtl Cocina
Ka 1 1 1
Kd 0.80000001192093 0.80000001192093 0.80000001192093
map_Kd cocina_frontal.jpg
Ks 1 1 1
Ns 50
illum 7

newmtl PuertaNevera
Ka 1 1 1
Kd 0.80000001192093 0.80000001192093 0.80000001192093
map_Kd nevera_frontal.jpg
Ks 1 1 1
Ns 50
illum 7

newmtl NeveraText
Ka 1 1 1
Kd 0.80000001192093 0.80000001192093 0.80000001192093
map_Kd nevera1.jpg
Ks 1 1 1
Ns 50
illum 7

newmtl CocinaPuertasAbajo
Ka 1 1 1
Kd 0.80000001192093 0.80000001192093 0.80000001192093
map_Kd armario_33.jpg
Ks 1 1 1
Ns 50
illum 7

newmtl LamparaBase
Ka 1 1 1
Kd 0.80000001192093 0.80000001192093 0.80000001192093
map_Kd lamparabase.jpg
Ks 1 1 1
Ns 50
illum 7

newmtl Lampara
Ka 1 1 1
Kd 0.80000001192093 0.80000001192093 0.80000001192093
map_Kd lamparas.jpg
Ks 1 1 1
Ns 50
illum 7

newmtl Cajones
Ka 1 1 1
Kd 0.80000001192093 0.80000001192093 0.80000001192093
map_Kd cajones.jpg
Ks 1 1 1
Ns 50
illum 7

newmtl madera
Ka 1 1 1
Kd 0.80000001192093 0.80000001192093 0.80000001192093
map_Kd todomadera.jpg
Ks 1 1 1
Ns 50
illum 7

newmtl baulFront
Ka 1 1 1
Kd 0.80000001192093 0.80000001192093 0.80000001192093
map_Kd baul_frontal.jpg
Ks 1 1 1
Ns 50
illum 7

newmtl BaulSup
Ka 1 1 1
Kd 0.80000001192093 0.80000001192093 0.80000001192093
map_Kd baul_superior.jpg
Ks 1 1 1
Ns 50
illum 7

newmtl pantalla
Ka 1 1 1
Kd 0.80000001192093 0.80000001192093 0.80000001192093
map_Kd tvpantalla.jpg
Ks 1 1 1
Ns 50
illum 7

newmtl tv
Ka 1 1 1
Kd 0.80000001192093 0.80000001192093 0.80000001192093
map_Kd tv.jpg
Ks 1 1 1
Ns 50
illum 7

newmtl cajastv
Ka 1 1 1
Kd 0.80000001192093 0.80000001192093 0.80000001192093
map_Kd cajabajotv.jpg
Ks 1 1 1
Ns 50
illum 7

newmtl dvd
Ka 1 1 1
Kd 0.80000001192093 0.80000001192093 0.80000001192093
map_Kd dvd.jpg
Ks 1 1 1
Ns 50
illum 7

newmtl Librerio
Ka 1 1 1
Kd 0.80000001192093 0.80000001192093 0.80000001192093
map_Kd librerio.jpg
Ks 1 1 1
Ns 50
illum 7

newmtl Sillones
Ka 1 1 1
Kd 0.80000001192093 0.80000001192093 0.80000001192093
map_Kd sillones.jpg
Ks 1 1 1
Ns 50
illum 7

newmtl LamparaEsc
Ka 1 1 1
Kd 0.80000001192093 0.80000001192093 0.80000001192093
map_Kd lampara.jpg
Ks 1 1 1
Ns 50
illum 7

newmtl cajastv2
Ka 1 1 1
Kd 0.80000001192093 0.80000001192093 0.80000001192093
map_Kd cajasbajotv.jpg
Ks 1 1 1
Ns 50
illum 7

