# WaveFront *.mtl file (generated by CINEMA 4D)

newmtl vela
Ka 1 1 1
Kd 0.80000001192093 0.80000001192093 0.80000001192093
map_Kd vela.png
Ks 1 1 1
Ns 50
illum 7

newmtl botella
Ka 1 1 1
Kd 0.80000001192093 0.80000001192093 0.80000001192093
map_Kd Botella.png
Ks 1 1 1
Ns 50
illum 7

newmtl libro
Ka 1 1 1
Kd 0.80000001192093 0.80000001192093 0.80000001192093
map_Kd Libro.png
Ks 1 1 1
Ns 50
illum 7

newmtl techo
Ka 1 1 1
Kd 0.80000001192093 0.80000001192093 0.80000001192093
map_Kd pared.jpg
Ks 1 1 1
Ns 50
illum 7

newmtl piso
Ka 1 1 1
Kd 0.80000001192093 0.80000001192093 0.80000001192093
map_Kd piso.jpg
Ks 1 1 1
Ns 50
illum 7

newmtl pared
Ka 1 1 1
Kd 0.80000001192093 0.80000001192093 0.80000001192093
map_Kd pared2.jpg
Ks 1 1 1
Ns 50
illum 7

newmtl puerta
Ka 1 1 1
Kd 0.80000001192093 0.80000001192093 0.80000001192093
map_Kd puerta_closet3m.jpg
Ks 1 1 1
Ns 50
illum 7

newmtl Lampara_Mesa
Ka 1 1 1
Kd 0.80000001192093 0.80000001192093 0.80000001192093
map_Kd lampara_mesa.jpg
Ks 1 1 1
Ns 50
illum 7

newmtl Velador
Ka 1 1 1
Kd 0.80000001192093 0.80000001192093 0.80000001192093
map_Kd velador_1.jpg
Ks 1 1 1
Ns 50
illum 7

newmtl Telefono2
Ka 1 1 1
Kd 0.80000001192093 0.80000001192093 0.80000001192093
map_Kd telefono2.jpg
Ks 1 1 1
Ns 50
illum 7

newmtl Lampara
Ka 1 1 1
Kd 0.80000001192093 0.80000001192093 0.80000001192093
map_Kd Lampara.jpg
Ks 1 1 1
Ns 50
illum 7

newmtl Escritorio
Ka 1 1 1
Kd 0.80000001192093 0.80000001192093 0.80000001192093
map_Kd escritorio.jpg
Ks 1 1 1
Ns 50
illum 7

newmtl Cajonera
Ka 1 1 1
Kd 0.80000001192093 0.80000001192093 0.80000001192093
map_Kd cajonera_1.jpg
Ks 1 1 1
Ns 50
illum 7

newmtl TextMadera
Ka 1 1 1
Kd 0.80000001192093 0.80000001192093 0.80000001192093
map_Kd banco.jpg
Ks 1 1 1
Ns 50
illum 7

newmtl almohada
Ka 1 1 1
Kd 0.80000001192093 0.80000001192093 0.80000001192093
map_Kd preset://user.lib4d/Objects/tex/10217_Bed_Pillow_v1_Difuse.jpg
Ks 1 1 1
Ns 50
illum 7

newmtl Sabanas
Ka 1 1 1
Kd 0.80000001192093 0.80000001192093 0.80000001192093
map_Kd Textura_cama2.jpg
Ks 1 1 1
Ns 50
illum 7

newmtl Colcha
Ka 1 1 1
Kd 0.80000001192093 0.80000001192093 0.80000001192093
map_Kd Textura_cama.jpg
Ks 1 1 1
Ns 50
illum 7

newmtl Telefono
Ka 1 1 1
Kd 0.80000001192093 0.80000001192093 0.80000001192093
map_Kd telefono1.jpg
Ks 1 1 1
Ns 50
illum 7

