# WaveFront *.mtl file (generated by CINEMA 4D)

newmtl default
Kd 1 1 1

newmtl vela
Ka 1 1 1
Kd 0.80000001192093 0.80000001192093 0.80000001192093
map_Kd vela.png
Ks 1 1 1
Ns 50
illum 7

newmtl botella
Ka 1 1 1
Kd 0.80000001192093 0.80000001192093 0.80000001192093
map_Kd Botella.png
Ks 1 1 1
Ns 50
illum 7

newmtl libro
Ka 1 1 1
Kd 0.80000001192093 0.80000001192093 0.80000001192093
map_Kd Libro.png
Ks 1 1 1
Ns 50
illum 7

newmtl techo
Ka 1 1 1
Kd 0.80000001192093 0.80000001192093 0.80000001192093
map_Kd pared.jpg
Ks 1 1 1
Ns 50
illum 7

newmtl piso
Ka 1 1 1
Kd 0.80000001192093 0.80000001192093 0.80000001192093
map_Kd piso.jpg
Ks 1 1 1
Ns 50
illum 7

newmtl pared
Ka 1 1 1
Kd 0.80000001192093 0.80000001192093 0.80000001192093
map_Kd pared2.jpg
Ks 1 1 1
Ns 50
illum 7

newmtl puerta
Ka 1 1 1
Kd 0.80000001192093 0.80000001192093 0.80000001192093
map_Kd puerta_closet3m.jpg
Ks 1 1 1
Ns 50
illum 7

newmtl Lampara_Mesa
Ka 1 1 1
Kd 0.80000001192093 0.80000001192093 0.80000001192093
map_Kd lampara_mesa.jpg
Ks 1 1 1
Ns 50
illum 7

newmtl Velador
Ka 1 1 1
Kd 0.80000001192093 0.80000001192093 0.80000001192093
map_Kd velador_1.jpg
Ks 1 1 1
Ns 50
illum 7

newmtl Telefono2
Ka 1 1 1
Kd 0.80000001192093 0.80000001192093 0.80000001192093
map_Kd telefono2.jpg
Ks 1 1 1
Ns 50
illum 7

newmtl Lampara
Ka 1 1 1
Kd 0.80000001192093 0.80000001192093 0.80000001192093
map_Kd Lampara.jpg
Ks 1 1 1
Ns 50
illum 7

newmtl Escritorio
Ka 1 1 1
Kd 0.80000001192093 0.80000001192093 0.80000001192093
map_Kd escritorio.jpg
Ks 1 1 1
Ns 50
illum 7

newmtl Cajonera
Ka 1 1 1
Kd 0.80000001192093 0.80000001192093 0.80000001192093
map_Kd cajonera_1.jpg
Ks 1 1 1
Ns 50
illum 7

newmtl TextMadera
Ka 1 1 1
Kd 0.80000001192093 0.80000001192093 0.80000001192093
map_Kd banco.jpg
Ks 1 1 1
Ns 50
illum 7

newmtl almohada
Ka 1 1 1
Kd 0.80000001192093 0.80000001192093 0.80000001192093
map_Kd preset://user.lib4d/Objects/tex/10217_Bed_Pillow_v1_Difuse.jpg
Ks 1 1 1
Ns 50
illum 7

newmtl Sabanas
Ka 1 1 1
Kd 0.80000001192093 0.80000001192093 0.80000001192093
map_Kd Textura_cama2.jpg
Ks 1 1 1
Ns 50
illum 7

newmtl Colcha
Ka 1 1 1
Kd 0.80000001192093 0.80000001192093 0.80000001192093
map_Kd Textura_cama.jpg
Ks 1 1 1
Ns 50
illum 7

newmtl Mat.2
Ka 1 1 1
Kd 0.80000001192093 0.80000001192093 0.80000001192093
map_Kd vase_of_cat_memories_by_pie_is_why_we_live-d36nazw.jpg
Ks 1 1 1
Ns 50
illum 7

newmtl Mat.5
Ka 0.75 0.58620691299438 0.41379308700562
Kd 0.46666666865349 0.38823530077934 0.30196079611778
Ks 0.99000000953674 0.99000000953674 0.99000000953674
Ns 89
illum 7

newmtl Mat.4
Ka 0.25098040699959 0.15686275064945 0.07058823853731
Kd 0.27570667862892 0.98000001907349 0.22540000081062
map_Kd bathroom-tiles-texture-seamless-ygwkprdk.jpg
illum 7

newmtl Mat
Ka 1 1 1
Kd 0.80000001192093 0.80000001192093 0.80000001192093
map_Kd blanco.jpg
Ks 1 1 1
Ns 50
illum 7

newmtl Dirty Metal
Ka 1 1 1
Kd 0.70722186565399 0.70940369367599 0.70999997854233
Ks 1 1 1
Ns 43
illum 7

newmtl Mat.6
Ka 1 1 1
Kd 0.80000001192093 0.80000001192093 0.80000001192093
map_Kd 5696510-Closeup-of-seamless-white-marble-chips-wall-texture-Stock-Photo.jpg
Ks 1 1 1
Ns 50
illum 7

newmtl Grunge Black
Ka 1 1 1
Kd 0.28155338764191 0.28155338764191 0.28155338764191
map_Kd preset://1.lib4d/tex/rust paint 2.jpg
Ks 1 1 1
Ns 67
illum 7

newmtl Mat.3
Ka 1 1 1
Kd 0.80000001192093 0.80000001192093 0.80000001192093
map_Kd wood-texture.jpg
Ks 1 1 1
Ns 50
illum 7

newmtl White Metal Rusty
Ka 0.07000000029802 0.07000000029802 0.07000000029802
Kd 0.96062994003296 0.97965878248215 1
Ks 1 1 1
Ns 31
illum 7

newmtl piso2
Ka 1 1 1
Kd 0.80000001192093 0.80000001192093 0.80000001192093
map_Kd piso2.jpg
Ks 1 1 1
Ns 50
illum 7

newmtl cocina
Ka 1 1 1
Kd 0.80000001192093 0.80000001192093 0.80000001192093
map_Kd cocina.jpg
Ks 1 1 1
Ns 50
illum 7

newmtl pared_1
Ka 1 1 1
Kd 0.80000001192093 0.80000001192093 0.80000001192093
map_Kd pared.jpg
Ks 1 1 1
Ns 50
illum 7

newmtl suelo_cocina
Ka 1 1 1
Kd 0.80000001192093 0.80000001192093 0.80000001192093
map_Kd suelo_cocina.jpg
Ks 1 1 1
Ns 50
illum 7

newmtl marmol2
Ka 1 1 1
Kd 0.80000001192093 0.80000001192093 0.80000001192093
map_Kd marmol2.png
Ks 1 1 1
Ns 50
illum 7

newmtl Marmol1
Ka 1 1 1
Kd 0.80000001192093 0.80000001192093 0.80000001192093
map_Kd marmol1.jpg
Ks 1 1 1
Ns 50
illum 7

newmtl armarios
Ka 1 1 1
Kd 0.80000001192093 0.80000001192093 0.80000001192093
map_Kd textura_armario.jpg
Ks 1 1 1
Ns 50
illum 7

newmtl cocinca_frontal
Ka 1 1 1
Kd 0.80000001192093 0.80000001192093 0.80000001192093
map_Kd cocina_frontal.jpg
Ks 1 1 1
Ns 50
illum 7

newmtl nevera_predeterminado
Ka 1 1 1
Kd 0.80000001192093 0.80000001192093 0.80000001192093
map_Kd nevera1.jpg
Ks 1 1 1
Ns 50
illum 7

newmtl cocina_superior
Ka 1 1 1
Kd 0.80000001192093 0.80000001192093 0.80000001192093
map_Kd cocina_superior1.jpg
Ks 1 1 1
Ns 50
illum 7

newmtl armario_grande
Ka 1 1 1
Kd 0.80000001192093 0.80000001192093 0.80000001192093
map_Kd armario_grande.jpg
Ks 1 1 1
Ns 50
illum 7

newmtl armario_pequeno
Ka 1 1 1
Kd 0.80000001192093 0.80000001192093 0.80000001192093
map_Kd armario_pequeno.jpg
Ks 1 1 1
Ns 50
illum 7

newmtl nevera_frontal
Ka 1 1 1
Kd 0.80000001192093 0.80000001192093 0.80000001192093
map_Kd nevera2.jpg
Ks 1 1 1
Ns 50
illum 7

newmtl armario_abajo1
Ka 1 1 1
Kd 0.80000001192093 0.80000001192093 0.80000001192093
map_Kd armario_bajo1.jpg
Ks 1 1 1
Ns 50
illum 7

newmtl marmol3
Ka 1 1 1
Kd 0.80000001192093 0.80000001192093 0.80000001192093
map_Kd marmol3.jpg
Ks 1 1 1
Ns 50
illum 7

newmtl armario33
Ka 1 1 1
Kd 0.80000001192093 0.80000001192093 0.80000001192093
map_Kd armario_33.jpg
Ks 1 1 1
Ns 50
illum 7

newmtl default
Kd 1 1 1
Ks 1 1 1
Ns 50
illum 7

newmtl Sillones
Ka 1 1 1
Kd 0.80000001192093 0.80000001192093 0.80000001192093
map_Kd sillones.png
Ks 1 1 1
Ns 50
illum 7

newmtl marron
Ka 1 1 1
Kd 0.34999999403954 0.21583333611488 0
Ks 1 1 1
Ns 50
illum 7

newmtl lampara
Ka 1 1 1
Kd 0.80000001192093 0.80000001192093 0.80000001192093
map_Kd lampara.jpg
Ks 1 1 1
Ns 50
illum 7

newmtl mesa1
Ka 1 1 1
Kd 0.80000001192093 0.80000001192093 0.80000001192093
map_Kd mesa1.jpg
Ks 1 1 1
Ns 50
illum 7

newmtl baul_superior
Ka 1 1 1
Kd 0.80000001192093 0.80000001192093 0.80000001192093
map_Kd baul_superior.jpg
Ks 1 1 1
Ns 50
illum 7

newmtl baul_frontal
Ka 1 1 1
Kd 0.80000001192093 0.80000001192093 0.80000001192093
map_Kd baul_frontal.jpg
Ks 1 1 1
Ns 50
illum 7

newmtl estatica
Ka 1 1 1
Kd 0.80000001192093 0.80000001192093 0.80000001192093
map_Kd estatica.jpg
Ks 1 1 1
Ns 50
illum 7

newmtl tele
Ka 1 1 1
Kd 0.80000001192093 0.80000001192093 0.80000001192093
map_Kd tele_textura.jpg
Ks 1 1 1
Ns 50
illum 7

newmtl television_frontal
Ka 1 1 1
Kd 0.80000001192093 0.80000001192093 0.80000001192093
map_Kd television_frontal.jpg
Ks 1 1 1
Ns 50
illum 7

newmtl puntos
Ka 1 1 1
Kd 0.80000001192093 0.80000001192093 0.80000001192093
map_Kd puntos_colores.jpg
Ks 1 1 1
Ns 50
illum 7

newmtl play
Ka 1 1 1
Kd 0.80000001192093 0.80000001192093 0.80000001192093
map_Kd ps2.jpg
Ks 1 1 1
Ns 50
illum 7

newmtl ps4_lado
Ka 1 1 1
Kd 0.80000001192093 0.80000001192093 0.80000001192093
map_Kd ps2_lado.jpg
Ks 1 1 1
Ns 50
illum 7

newmtl play_portada
Ka 1 1 1
Kd 0.81000000238419 0.81000000238419 0.81000000238419
map_Kd ps2_textura.jpg
Ks 1 1 1
Ns 50
illum 7

newmtl puntos_rojos
Ka 1 1 1
Kd 0.80000001192093 0.80000001192093 0.80000001192093
map_Kd puntos_rojos.jpg
Ks 1 1 1
Ns 50
illum 7

newmtl mesatele
Ka 1 1 1
Kd 0.80000001192093 0.80000001192093 0.80000001192093
map_Kd mesatele.png
Ks 1 1 1
Ns 50
illum 7

newmtl mesa2
Ka 1 1 1
Kd 0.80000001192093 0.80000001192093 0.80000001192093
map_Kd mesa2.png
Ks 1 1 1
Ns 50
illum 7

newmtl Telefono
Ka 1 1 1
Kd 0.80000001192093 0.80000001192093 0.80000001192093
map_Kd telefono1.jpg
Ks 1 1 1
Ns 50
illum 7

newmtl White Metal Rusty
Ka 0.07000000029802 0.07000000029802 0.07000000029802
Kd 0.96062994003296 0.97965878248215 1
Ks 1 1 1
Ns 31
illum 7

newmtl Mat.1
Ka 1 1 1
Kd 0.80000001192093 0.80000001192093 0.80000001192093
map_Kd Tileable marble floor tile texture (2).jpg
Ks 1 1 1
Ns 54
illum 7

newmtl paredes
Ka 1 1 1
Kd 0.74000000953674 0.74000000953674 0.74000000953674
map_Kd paredesbaño.jpg
Ks 1 1 1
Ns 46
illum 7

newmtl White Metal Rusty
Kd 1 1 1
Ks 1 1 1
Ns 50
illum 7

newmtl Mat.3
Kd 1 1 1
Ks 1 1 1
Ns 50
illum 7

newmtl Grunge Black
Kd 1 1 1
Ks 1 1 1
Ns 50
illum 7

newmtl Mat.6
Kd 1 1 1
Ks 1 1 1
Ns 50
illum 7

newmtl Dirty Metal
Kd 1 1 1
Ks 1 1 1
Ns 50
illum 7

newmtl Mat
Kd 1 1 1
Ks 1 1 1
Ns 50
illum 7

newmtl Mat.4
Kd 1 1 1
Ks 1 1 1
Ns 50
illum 7

newmtl default
Kd 1 1 1
Ks 1 1 1
Ns 50
illum 7

newmtl Mat.5
Kd 1 1 1
Ks 1 1 1
Ns 50
illum 7

newmtl Mat.2
Kd 1 1 1
Ks 1 1 1
Ns 50
illum 7

newmtl Telefono
Ka 1 1 1
Kd 0.80000001192093 0.80000001192093 0.80000001192093
map_Kd telefono1.jpg
Ks 1 1 1
Ns 50
illum 7

newmtl Colcha
Ka 1 1 1
Kd 0.80000001192093 0.80000001192093 0.80000001192093
map_Kd Textura_cama.jpg
Ks 1 1 1
Ns 50
illum 7

newmtl Sabanas
Ka 1 1 1
Kd 0.80000001192093 0.80000001192093 0.80000001192093
map_Kd Textura_cama2.jpg
Ks 1 1 1
Ns 50
illum 7

newmtl almohada
Ka 1 1 1
Kd 0.80000001192093 0.80000001192093 0.80000001192093
map_Kd preset://user.lib4d/Objects/tex/10217_Bed_Pillow_v1_Difuse.jpg
Ks 1 1 1
Ns 50
illum 7

newmtl TextMadera
Ka 1 1 1
Kd 0.80000001192093 0.80000001192093 0.80000001192093
map_Kd banco.jpg
Ks 1 1 1
Ns 50
illum 7

newmtl Cajonera
Ka 1 1 1
Kd 0.80000001192093 0.80000001192093 0.80000001192093
map_Kd cajonera_1.jpg
Ks 1 1 1
Ns 50
illum 7

newmtl Escritorio
Ka 1 1 1
Kd 0.80000001192093 0.80000001192093 0.80000001192093
map_Kd escritorio.jpg
Ks 1 1 1
Ns 50
illum 7

newmtl Lampara
Ka 1 1 1
Kd 0.80000001192093 0.80000001192093 0.80000001192093
map_Kd Lampara.jpg
Ks 1 1 1
Ns 50
illum 7

newmtl Telefono2
Ka 1 1 1
Kd 0.80000001192093 0.80000001192093 0.80000001192093
map_Kd telefono2.jpg
Ks 1 1 1
Ns 50
illum 7

newmtl Velador
Ka 1 1 1
Kd 0.80000001192093 0.80000001192093 0.80000001192093
map_Kd velador_1.jpg
Ks 1 1 1
Ns 50
illum 7

newmtl Lampara_Mesa
Ka 1 1 1
Kd 0.80000001192093 0.80000001192093 0.80000001192093
map_Kd lampara_mesa.jpg
Ks 1 1 1
Ns 50
illum 7

newmtl puerta
Ka 1 1 1
Kd 0.80000001192093 0.80000001192093 0.80000001192093
map_Kd puerta_closet3m.jpg
Ks 1 1 1
Ns 50
illum 7

newmtl pared
Ka 1 1 1
Kd 0.80000001192093 0.80000001192093 0.80000001192093
map_Kd pared2.jpg
Ks 1 1 1
Ns 50
illum 7

newmtl piso
Ka 1 1 1
Kd 0.80000001192093 0.80000001192093 0.80000001192093
map_Kd piso.jpg
Ks 1 1 1
Ns 50
illum 7

newmtl techo
Ka 1 1 1
Kd 0.80000001192093 0.80000001192093 0.80000001192093
map_Kd pared.jpg
Ks 1 1 1
Ns 50
illum 7

newmtl libro
Ka 1 1 1
Kd 0.80000001192093 0.80000001192093 0.80000001192093
map_Kd Libro.png
Ks 1 1 1
Ns 50
illum 7

newmtl botella
Ka 1 1 1
Kd 0.80000001192093 0.80000001192093 0.80000001192093
map_Kd Botella.png
Ks 1 1 1
Ns 50
illum 7

newmtl vela
Ka 1 1 1
Kd 0.80000001192093 0.80000001192093 0.80000001192093
map_Kd vela.png
Ks 1 1 1
Ns 50
illum 7

newmtl armario_bajo2
Ka 1 1 1
Kd 0.80000001192093 0.80000001192093 0.80000001192093
map_Kd armario_bajo2.jpg
Ks 1 1 1
Ns 50
illum 7

newmtl Mat
Ka 1 1 1
Kd 0.80000001192093 0.80000001192093 0.80000001192093
Ks 1 1 1
Ns 50
illum 7

newmtl piso
Ka 1 1 1
Kd 0.80000001192093 0.80000001192093 0.80000001192093
map_Kd piso.jpg
Ks 1 1 1
Ns 50
illum 7

